﻿{"urls":[
 {"name": "📚公众号：拾光趣乐屋📚","url":"https://gitlab.com/xmbjm/omg/-/raw/main/omg.json"},
 {"name": "拾光秒播📚拾光仓库","url":"https://gitlab.com/xmbjm/ssvip/-/raw/main/ssvip.json"},
 {"name": "拾光4K📚拾光仓库","url":"https://gitlab.com/xmbjm/vip4K/-/raw/main/4Kvip.json"},
 {"name": "拾光VIP📚拾光仓库","url":"https://gitlab.com/xmbjm/zrj/-/raw/main/vip.json"},
 {"name": "拾光智教📚拾光仓库","url":"https://gitlab.com/xmbjm/srpd/-/raw/main/srpd.json"},
 {"name": "拾光T4📚拾光仓库","url":"https://gitlab.com/xmbjm/dc/-/raw/main/T4.json"},
 {"name": "荷城茶秀📚拾光仓库","url":"http://rihou.vip:88/荷城茶秀"},
 {"name": "茶秀备份📚拾光仓库","url":"https://ghproxy.net/https://raw.githubusercontent.com/HeChengChaXiu/tvbox/main/hccx.json"},
 {"name": "天微VIP📚拾光仓库","url":"https://gitee.com/tvkj/tw/raw/main/svip.json"},
 {"name": "无敌乌鸦📚拾光仓库","url":"https://pan.shangui.cc/f/gyVYFV/乌鸦不太黑.json"},
 {"name": "春莹天下📚拾光仓库","url":"http://120.24.204.74:1888/?explorer/share/file&hash=1277MMs1UITPwRkFSiUwxvFZU1UGQqfXHMnKQHeMcexYxjtYy9tydrVYUbsNkOItAw&name=/春盈天下新yy.css"},
 {"name": "黄金授权仓📚拾光仓库","url":"https://gitlab.com/lzc1021lzc/hjfggzs.hjys/-/raw/main/hjys.free.json"},
 {"name": "PizazzGY📚拾光仓库","url":"https://github.moeyy.xyz/https://raw.githubusercontent.com/PizazzGY/TVBox/main/api.json"},
 {"name": "CandyMuj📚拾光仓库","url":"https://gitlab.com/noimank/tvbox/-/raw/main/tvbox1.json"},
 {"name": "影视资源📚拾光仓库","url":"http://bp.tvbox.cam"},
 {"name": "影视备用📚拾光仓库","url":"https://d.kstore.space/download/6474/tvbox/api.json"},
 {"name": "饭太硬📚拾光仓库","url":"http://www.饭太硬.com/tv"},
 {"name": "菜妮丝📚拾光仓库","url":"https://tv.xn--yhqu5zs87a.top"},
 {"name": "环宇轩📚拾光仓库","url":"https://gitee.com/hyxuan_admin/xnf/raw/master/xnf.json"},
 {"name": "木鱼木📚拾光仓库","url":"https://mp-064c2f8f-83e1-4bd3-a4a5-103f278b40df.cdn.bspapp.com/cloudstorage/d508ce3e-f916-4f62-b06d-b3d2f12ce130.bmp"},
 {"name": "货运车📚拾光仓库","url":"https://cf.weixine.net/ysc.json"},
 {"name": "影视车📚拾光仓库","url": "http://svip.weixine.net:88/uploads/itvbox/svip.json"},
 {"name": "D佬大📚拾光仓库","url":"https://download.kstore.space/download/2883/m3u8/dsj/guochan/mp1/1.m3u8"},
 {"name": "一十锦📚拾光仓库","url":"http://jin.锦哥哥.love"},
 {"name": "三条Z📚拾光仓库","url":"http://152.32.170.60/mmmgit/tvbox/raw/branch/main/zzz1.json"},
 {"name": "动漫城📚拾光仓库","url":"https://www.yingm.cc/dm/dm.json"},
 {"name": "喵影视📚拾光仓库","url":"http://meowtv.cn/tv"},
 {"name": "斧头帮📚拾光仓库","url":"http://yuhuahx.com/恒星育华学堂/斧头帮.php"},
 {"name": "夜猫子📚拾光仓库","url":"https://raw.gitcode.com/Xymz/ymz/blobs/3e447ee2b92cbf8282c1648387380768a73efa63/YMZ"},
 {"name": "欧歌📚拾光仓库","url": "http://tv.nxog.top/m/111.php"},
 {"name": "无界📚拾光仓库","url":"http://www.cwss.xyz/wj.json"},
 {"name": "肥猫📚拾光仓库","url":"http://肥猫.com/"},
 {"name": "云星📚拾光仓库","url":"http://itvbox.cc/tvbox/云星日记/1.m3u8"},
 {"name": "摸鱼📚拾光仓库","url":"http://我不是.摸鱼儿.top"},
 {"name": "无意📚拾光仓库","url":"http://www.wya6.cn/tv/yc.json"},
 {"name": "恒星📚拾光仓库","url":"https://gitee.com/heng546199810/hxvip1/raw/master/hxzx.txt"},
 {"name": "玉玉📚拾光仓库","url":"http://xn--5nqxcz3am3cb7e94xzy6aa2935d.xyz/xc.json"},
 {"name": "短剧📚拾光仓库","url": "http://74.120.175.78/JK/XYQTVBox/dj.json"},
 {"name": "天微📚拾光仓库","url":"https://qixing.myhkw.com/tianwei/svip.json"},
 {"name": "万达📚拾光仓库","url":"http://sinopacifichk.com/box/56.txt"},
 {"name": "南风📚拾光仓库","url": "https://ghproxy.net/https://raw.githubusercontent.com/yoursmile66/TVBox/main/XC.json"},
 {"name": "橘子📚拾光仓库","url": "https://juziyou.vip/tv"},
 {"name": "小米📚拾光仓库","url": "http://xhww.fun:63/小米/DEMO.json"},
 {"name": "东辰📚拾光仓库","url": "https://gitee.com/dongchenliu/liu/raw/master/hb.json"},
 {"name": "魔饭📚拾光仓库","url": "https://jihulab.com/yw88075/tvbox/-/raw/main/dr/js.json"},
 {"name": "小马📚拾光仓库","url": "https://szyyds.cn/tv/x.json"},
 {"name": "开心📚拾光仓库","url": "http://rihou.cc:55/天天开心"},
 {"name": "飘零📚拾光仓库","url": "https://100km.top/0"},
 {"name": "无意📚拾光仓库","url":"http://www.wya6.cn/tv/yc.json"},
 {"name": "杂烩📚拾光仓库","url":"https://atomgit.com/hengxing/hx/raw/master/dzh.txt"},
 {"name": "网盘📚拾光仓库","url":"https://gitlab.com/dokiss1/tvbox/-/raw/master/doki-Dx.json"},
 {"name": "教育专线📚拾光仓库","url": "http://152.32.170.60/895322156/Q/raw/branch/master/TV/jy.txt"},
 {"name": "少儿益智📚拾光仓库","url": "http://tvkj.top/QXZJ/svip.json"}]
}